<svg width="1382" height="1081" viewBox="0 0 1382 1081" fill="none" xmlns="http://www.w3.org/2000/svg">
<path fill-rule="evenodd" clip-rule="evenodd" d="M0.567993 1080.74V0.231201L778.84 0.744977C778.787 1.20693 778.731 1.66861 778.673 2.12998C777.353 12.69 768.043 80.832 744.312 110.428C742.748 112.395 741.041 114.244 739.205 115.96C736.207 118.72 733.15 121.416 730.035 124.044C700.278 149.267 650.429 183.778 641.469 189.941C641.003 190.262 640.536 190.583 640.069 190.903L639.863 191.1C639.692 191.264 639.522 191.428 639.351 191.592C632.601 198.082 580.455 248.556 576.364 262.847C575.888 264.531 575.462 266.229 575.086 267.938C571.816 282.595 569.921 304.006 569.634 307.4L569.616 307.609C569.609 307.693 569.602 307.776 569.595 307.86C569.851 308.254 570.105 308.648 570.359 309.043C576.036 317.87 611.909 374.25 628.812 415.427C632.022 423.239 634.914 431.178 637.482 439.224C647.609 470.994 648.745 492.542 648.77 493.055V493.065C648.77 493.065 624.707 587.183 622.54 590.454C622.323 590.846 622.136 591.255 621.98 591.675C617.082 603.777 587.214 696.879 599.579 730.066C609.38 756.372 625.588 785.646 643.623 807.176C649.107 813.843 655.203 819.981 661.832 825.511C686.732 845.819 746.681 890.205 807.274 907.516C867.868 924.826 886.082 929.572 947.149 940.023C972.723 944.376 998.323 948.576 1023.95 952.625C1033.15 954.088 1042.07 955.496 1050.65 956.849C1057.38 957.912 1063.9 958.94 1070.17 959.935C1081.71 961.756 1093.24 963.621 1104.77 965.531C1116.92 967.451 1129.11 969.086 1141.34 970.433L1141.84 970.493C1170.52 973.881 1199.5 977.306 1222.89 986.949C1233.32 991.218 1243.73 995.526 1254.13 999.873C1269.8 1006.48 1284.23 1012.91 1296.34 1019.44C1300.49 1021.66 1304.56 1024.04 1308.53 1026.58C1310.6 1027.92 1312.65 1029.29 1314.69 1030.68C1337.98 1046.58 1381.53 1079.57 1381.53 1079.57L0.567993 1080.74Z" fill="#165BAA"/>
</svg>
